IS415-GAA-HX - Take Home Exercise 2
…
Aspatial Data: We will be making use of the data from Riwayat File Vaksinasi DKI Jakarta. This website the vaccination data set for Jakarta. Based on the task, I have downloaded the data set from the month of July 2021 to June 2022. For this analysis, I have decided to pick the 1st Day of the Month.

Geospatial Data: We will be making use of the DKI Jakarta administration boundary from 2019 in this case. The data can be found here.

Analyzing the Data

Aspatial Data

Now that we have gotten the data set, lets take a look at the data set. We will start off by loading the dataset from month of July 2021 first.

July_2021 <- read_excel("data/aspatial/Data Vaksinasi Berbasis Kelurahan (01 Juli 2021).xlsx")

July_2021

# A tibble: 268 × 21
   KODE KELURA…¹ WILAY…² KECAM…³ KELUR…⁴ SASARAN BELUM…⁵ JUMLA…⁶ JUMLA…⁷ TOTAL…⁸
   <chr>         <chr>   <chr>   <chr>     <dbl>   <dbl>   <dbl>   <dbl>   <dbl>
 1 <NA>          <NA>    <NA>    TOTAL   7739060 5041111 2696017 1181740 3877757
 2 3172051003    JAKART… PADEMA… ANCOL     20393   13272    7114    3287   10401
 3 3173041007    JAKART… TAMBORA ANGKE     25785   16477    9299    3221   12520
 4 3175041005    JAKART… KRAMAT… BALE K…   25158   18849    6301    2644    8945
 5 3175031003    JAKART… JATINE… BALI M…    8683    5743    2937    1517    4454
 6 3175101006    JAKART… CIPAYU… BAMBU …   22768   15407    7357    3985   11342
 7 3174031002    JAKART… MAMPAN… BANGKA    18930   12503    6421    2704    9125
 8 3175051002    JAKART… PASAR … BARU      20267   11268    8982    4674   13656
 9 3175041004    JAKART… KRAMAT… BATU A…   41389   30358   11020    5254   16274
10 3171071002    JAKART… TANAH … BENDUN…   19008   11502    7499    3566   11065
# … with 258 more rows, 12 more variables: `LANSIA\r\nDOSIS 1` <dbl>,
#   `LANSIA\r\nDOSIS 2` <dbl>, `LANSIA TOTAL \r\nVAKSIN DIBERIKAN` <dbl>,
#   `PELAYAN PUBLIK\r\nDOSIS 1` <dbl>, `PELAYAN PUBLIK\r\nDOSIS 2` <dbl>,
#   `PELAYAN PUBLIK TOTAL\r\nVAKSIN DIBERIKAN` <dbl>,
#   `GOTONG ROYONG\r\nDOSIS 1` <dbl>, `GOTONG ROYONG\r\nDOSIS 2` <dbl>,
#   `GOTONG ROYONG TOTAL\r\nVAKSIN DIBERIKAN` <dbl>,
#   `TENAGA KESEHATAN\r\nDOSIS 1` <dbl>, `TENAGA KESEHATAN\r\nDOSIS 2` <dbl>, …
…
Furthermore, note that there is actually a row in the data frame that provides only the total count, we would need to drop the row as well. I have check through the rest of the data set and found that they are all in the same format as above, as such we can perform the same code for all the data.

The Code Chunk below show how we can perform all the filtering and the removal of the first row in a single code chunk

July_2021 <- read_excel("data/aspatial/Data Vaksinasi Berbasis Kelurahan (01 Juli 2021).xlsx") %>% 
  select(0:6) %>%
  filter(!row_number() %in% c(1))

We can then verify that it has been removed already.

July_2021

# A tibble: 267 × 6
   `KODE KELURAHAN` `WILAYAH KOTA`  KECAMATAN        KELURAHAN   SASARAN BELUM…¹
   <chr>            <chr>           <chr>            <chr>         <dbl>   <dbl>
 1 3172051003       JAKARTA UTARA   PADEMANGAN       ANCOL         20393   13272
 2 3173041007       JAKARTA BARAT   TAMBORA          ANGKE         25785   16477
 3 3175041005       JAKARTA TIMUR   KRAMAT JATI      BALE KAMBA…   25158   18849
 4 3175031003       JAKARTA TIMUR   JATINEGARA       BALI MESTER    8683    5743
 5 3175101006       JAKARTA TIMUR   CIPAYUNG         BAMBU APUS    22768   15407
 6 3174031002       JAKARTA SELATAN MAMPANG PRAPATAN BANGKA        18930   12503
 7 3175051002       JAKARTA TIMUR   PASAR REBO       BARU          20267   11268
 8 3175041004       JAKARTA TIMUR   KRAMAT JATI      BATU AMPAR    41389   30358
 9 3171071002       JAKARTA PUSAT   TANAH ABANG      BENDUNGAN …   19008   11502
10 3175031002       JAKARTA TIMUR   JATINEGARA       BIDARA CINA   32331   23395
# … with 257 more rows, and abbreviated variable name ¹​`BELUM VAKSIN`
…
To Calculate Vaccination Rate, we would need to make some calculation as the vaccination data frame does not provide the vaccination rate directly, what was given however, is the amount of people not vaccination and the target vaccination. In this case we can use the formula:

Vaccination Rate = (Target - Not Vaccinated) / Target

We will be performing this calculation on the vaccination data frame. The code chunk below shows calculation of the vaccination rate into a new column

vaccinated_july <- July_2021 %>% 
  mutate(vaccinated_rate = (`SASARAN` - `BELUM VAKSIN`)/`SASARAN`)

Now we can take a look at the data.

vaccinated_july

# A tibble: 267 × 7
   `KODE KELURAHAN` `WILAYAH KOTA`  KECAMATAN    KELUR…¹ SASARAN BELUM…² vacci…³
   <chr>            <chr>           <chr>        <chr>     <dbl>   <dbl>   <dbl>
 1 3172051003       JAKARTA UTARA   PADEMANGAN   ANCOL     20393   13272   0.349
 2 3173041007       JAKARTA BARAT   TAMBORA      ANGKE     25785   16477   0.361
 3 3175041005       JAKARTA TIMUR   KRAMAT JATI  BALE K…   25158   18849   0.251
 4 3175031003       JAKARTA TIMUR   JATINEGARA   BALI M…    8683    5743   0.339
 5 3175101006       JAKARTA TIMUR   CIPAYUNG     BAMBU …   22768   15407   0.323
 6 3174031002       JAKARTA SELATAN MAMPANG PRA… BANGKA    18930   12503   0.340
 7 3175051002       JAKARTA TIMUR   PASAR REBO   BARU      20267   11268   0.444
 8 3175041004       JAKARTA TIMUR   KRAMAT JATI  BATU A…   41389   30358   0.267
 9 3171071002       JAKARTA PUSAT   TANAH ABANG  BENDUN…   19008   11502   0.395
10 3175031002       JAKARTA TIMUR   JATINEGARA   BIDARA…   32331   23395   0.276
# … with 257 more rows, and abbreviated variable names ¹​KELURAHAN,
#   ²​`BELUM VAKSIN`, ³​vaccinated_rate
…
df <- df %>% add_row("month" = as.Date("01/05/2022", "%m/%d/%Y"), 
               "DESA" = jakarta_may %>% pull(DESA),
               "vaccinated_rate" = jakarta_may %>% pull(vaccinated_rate))

df <- df %>% add_row("month" = as.Date("01/06/2022", "%m/%d/%Y"), 
               "DESA" = jakarta_jun %>% pull(DESA),
               "vaccinated_rate" = jakarta_jun %>% pull(vaccinated_rate))

Lets take a look at our new data frame with all the information.

df

# A tibble: 3,132 × 3
   month      DESA               vaccinated_rate
   <date>     <chr>                        <dbl>
 1 2021-01-07 KEAGUNGAN                    0.327
 2 2021-01-07 GLODOK                       0.505
 3 2021-01-07 HARAPAN MULIA                0.318
 4 2021-01-07 CEMPAKA BARU                 0.326
 5 2021-01-07 PASAR BARU                   0.479
 6 2021-01-07 KARANG ANYAR                 0.348
 7 2021-01-07 MANGGA DUA SELATAN           0.351
 8 2021-01-07 PETOJO UTARA                 0.347
 9 2021-01-07 SENEN                        0.396
10 2021-01-07 BUNGUR                       0.374
# … with 3,122 more rows
…
We can make use of the emerging_hotspot_analysis() function. It takes the space time cube and combines the Gi* statistic with the Mann-Kendall test to determine if there is a temporal trend associated with local clustering of hot and cold spots. Find out more here.

ehsa_analysis <- emerging_hotspot_analysis(
  x = vaccinated_rate_st, 
  .var = "vaccinated_rate", 
  k = 1, 
  nsim = 99
)

After we have completed that, lets take a look at the data.

ehsa_analysis

# A tibble: 261 × 4
   location             tau  p_value classification    
   <chr>              <dbl>    <dbl> <chr>             
 1 KEAGUNGAN          0.576 0.0112   oscilating hotspot
 2 GLODOK             0.606 0.00749  sporadic coldspot 
 3 HARAPAN MULIA      0.636 0.00493  sporadic coldspot 
 4 CEMPAKA BARU       0.636 0.00493  sporadic coldspot 
 5 PASAR BARU         0.848 0.000162 oscilating hotspot
 6 KARANG ANYAR       0.576 0.0112   oscilating hotspot
 7 MANGGA DUA SELATAN 0.848 0.000162 oscilating hotspot
 8 PETOJO UTARA       0.606 0.00749  sporadic coldspot 
 9 SENEN              0.273 0.244    sporadic coldspot 
10 BUNGUR             0.636 0.00493  sporadic coldspot 
# … with 251 more rows
…
