IS415-GAA-HX - Take Home Exercise 1
…
ℹ Use `spec()` to retrieve the full column specification for this data.
ℹ Specify the column types or set `show_col_types = FALSE` to quiet this message.

Converting the water point data into sf point feature.

Despite loading the aspatial dataframe into a tibble data frame, we would need to convert the dataframe into an sf data frame for us to perform Geospatial Analysis.

The column “New Georeferenced Column” contain the spatial data is a well-known text representation of geometry, as the such the fuction st_as_sfc() can be used to convert that into a sfc object. Read more about st_as_sfc() from sf here. We will append the sfc object into a new Column called “Geometry”.

wp_nga$Geometry = st_as_sfc(wp_nga$`New Georeferenced Column`)
wp_nga

# A tibble: 95,008 × 71
   row_id `#source`      #lat_…¹ #lon_…² #repo…³ #stat…⁴ #wate…⁵ #wate…⁶ #wate…⁷
    <dbl> <chr>            <dbl>   <dbl> <chr>   <chr>   <chr>   <chr>   <chr>  
 1 429068 GRID3             7.98    5.12 08/29/… Unknown <NA>    <NA>    Tapsta…
 2 222071 Federal Minis…    6.96    3.60 08/16/… Yes     Boreho… Well    Mechan…
 3 160612 WaterAid          6.49    7.93 12/04/… Yes     Boreho… Well    Hand P…
 4 160669 WaterAid          6.73    7.65 12/04/… Yes     Boreho… Well    <NA>   
 5 160642 WaterAid          6.78    7.66 12/04/… Yes     Boreho… Well    Hand P…
 6 160628 WaterAid          6.96    7.78 12/04/… Yes     Boreho… Well    Hand P…
 7 160632 WaterAid          7.02    7.84 12/04/… Yes     Boreho… Well    Hand P…
 8 642747 Living Water …    7.33    8.98 10/03/… Yes     Boreho… Well    Mechan…
 9 642456 Living Water …    7.17    9.11 10/03/… Yes     Boreho… Well    Hand P…
10 641347 Living Water …    7.20    9.22 03/28/… Yes     Boreho… Well    Hand P…
# … with 94,998 more rows, 62 more variables: `#water_tech_category` <chr>,
#   `#facility_type` <chr>, `#clean_country_name` <chr>, `#clean_adm1` <chr>,
#   `#clean_adm2` <chr>, `#clean_adm3` <chr>, `#clean_adm4` <chr>,
#   `#install_year` <dbl>, `#installer` <chr>, `#rehab_year` <lgl>,
#   `#rehabilitator` <lgl>, `#management_clean` <chr>, `#status_clean` <chr>,
#   `#pay` <chr>, `#fecal_coliform_presence` <chr>,
#   `#fecal_coliform_value` <dbl>, `#subjective_quality` <chr>, …
Now than we have a tibble data frame we would need to convert the data frame into a sf object using st_sf(). Read more about st_sf() here.

Important

It is important to note that the sfc object in the Geometry column does not contain the correct referencing system. There is a need to transform the projection into a WGS 84. The EPSG code is 4326.

wp_sf <- st_sf(wp_nga, crs=4326)
wp_sf

Simple feature collection with 95008 features and 70 fields
Geometry type: POINT
Dimension:     XY
Bounding box:  xmin: 2.707441 ymin: 4.301812 xmax: 14.21828 ymax: 13.86568
Geodetic CRS:  WGS 84
# A tibble: 95,008 × 71
   row_id `#source`      #lat_…¹ #lon_…² #repo…³ #stat…⁴ #wate…⁵ #wate…⁶ #wate…⁷
 *  <dbl> <chr>            <dbl>   <dbl> <chr>   <chr>   <chr>   <chr>   <chr>  
 1 429068 GRID3             7.98    5.12 08/29/… Unknown <NA>    <NA>    Tapsta…
 2 222071 Federal Minis…    6.96    3.60 08/16/… Yes     Boreho… Well    Mechan…
 3 160612 WaterAid          6.49    7.93 12/04/… Yes     Boreho… Well    Hand P…
 4 160669 WaterAid          6.73    7.65 12/04/… Yes     Boreho… Well    <NA>   
 5 160642 WaterAid          6.78    7.66 12/04/… Yes     Boreho… Well    Hand P…
 6 160628 WaterAid          6.96    7.78 12/04/… Yes     Boreho… Well    Hand P…
 7 160632 WaterAid          7.02    7.84 12/04/… Yes     Boreho… Well    Hand P…
 8 642747 Living Water …    7.33    8.98 10/03/… Yes     Boreho… Well    Mechan…
 9 642456 Living Water …    7.17    9.11 10/03/… Yes     Boreho… Well    Hand P…
10 641347 Living Water …    7.20    9.22 03/28/… Yes     Boreho… Well    Hand P…
# … with 94,998 more rows, 62 more variables: `#water_tech_category` <chr>,
#   `#facility_type` <chr>, `#clean_country_name` <chr>, `#clean_adm1` <chr>,
#   `#clean_adm2` <chr>, `#clean_adm3` <chr>, `#clean_adm4` <chr>,
#   `#install_year` <dbl>, `#installer` <chr>, `#rehab_year` <lgl>,
#   `#rehabilitator` <lgl>, `#management_clean` <chr>, `#status_clean` <chr>,
#   `#pay` <chr>, `#fecal_coliform_presence` <chr>,
#   `#fecal_coliform_value` <dbl>, `#subjective_quality` <chr>, …
…
wp_functional <- wp_sf_nga %>%
  filter(status_clean %in%
           c("Functional",
             "Functional but not in use",
             "Functional but needs repair"))

wp_functional

Simple feature collection with 52148 features and 1 field
Geometry type: POINT
Dimension:     XY
Bounding box:  xmin: 29322.63 ymin: 33758.37 xmax: 1218553 ymax: 1092629
Projected CRS: Minna / Nigeria Mid Belt
# A tibble: 52,148 × 2
   status_clean            Geometry
 * <chr>                <POINT [m]>
 1 Functional   (128394.3 330487.9)
 2 Functional   (464684.4 94532.59)
 3 Functional   (588792.3 74102.03)
 4 Functional     (459153.3 171705)
 5 Functional   (586703.9 75701.92)
 6 Functional      (612461.7 87149)
 7 Functional     (503439 87320.23)
 8 Functional   (599467.7 92205.82)
 9 Functional   (651470.8 101586.9)
10 Functional   (650819.3 104796.9)
# … with 52,138 more rows
…
wp_nonfunctional

Simple feature collection with 32204 features and 1 field
Geometry type: POINT
Dimension:     XY
Bounding box:  xmin: 28907.91 ymin: 33736.93 xmax: 1209690 ymax: 1092883
Projected CRS: Minna / Nigeria Mid Belt
# A tibble: 32,204 × 2
   status_clean                        Geometry
 * <chr>                            <POINT [m]>
 1 Abandoned/Decommissioned (578642.2 141523.1)
 2 Abandoned/Decommissioned (571655.4 70856.98)
 3 Abandoned/Decommissioned   (571629.5 143544)
 4 Abandoned/Decommissioned (608748.8 141693.1)
 5 Abandoned/Decommissioned (576876.2 66860.76)
 6 Abandoned/Decommissioned   (698288 224655.8)
 7 Abandoned/Decommissioned (698293.1 224809.4)
 8 Abandoned/Decommissioned (341287.7 459644.6)
 9 Abandoned/Decommissioned (402193.2 89488.33)
10 Abandoned/Decommissioned (589410.8 147917.3)
# … with 32,194 more rows

This is to extract unknown water point

wp_unknown <- wp_sf_nga %>%
  filter(status_clean == "unknown")

wp_unknown

Simple feature collection with 10656 features and 1 field
Geometry type: POINT
Dimension:     XY
Bounding box:  xmin: 29143.21 ymin: 36660.5 xmax: 1293293 ymax: 965811.9
Projected CRS: Minna / Nigeria Mid Belt
# A tibble: 10,656 × 2
   status_clean            Geometry
 * <chr>                <POINT [m]>
 1 unknown      (297874.6 441473.8)
 2 unknown      (607559.4 274905.5)
 3 unknown      (576523.1 301556.6)
 4 unknown      (578321.7 307339.8)
 5 unknown      (590994.2 326738.8)
 6 unknown      (597909.2 333608.5)
 7 unknown      (724171.9 367609.1)
 8 unknown      (737994.1 350616.5)
 9 unknown      (749790.1 354304.6)
10 unknown      (728109.9 367079.1)
# … with 10,646 more rows
…
